Division,WeightClassKg,Place,Name,Team,BodyweightKg,Best3SquatKg,Best3BenchKg,Best3DeadliftKg,TotalKg,Equipment,Event,Sex
Boys,51.71,1,Gabriel Hancock,Bovina,51.53,154.22,97.52,158.76,410.5,Single-ply,SBD,M
Boys,51.71,2,Michael Ramsey,Van Vleck,50.35,145.15,86.18,172.37,403.7,Single-ply,SBD,M
Boys,51.71,3,Devin Medina,Kenedy,51.35,151.95,81.65,161.03,394.63,Single-ply,SBD,M
Boys,51.71,4,Jonathon Luna,Tulia,51.44,149.69,90.72,154.22,394.63,Single-ply,SBD,M
Boys,51.71,5,Jesus Rios,Vanderbilt Industrial,51.53,133.81,97.52,163.29,394.63,Single-ply,SBD,M
Boys,51.71,6,Cody Villa,Crawford,51.26,136.08,86.18,170.1,392.36,Single-ply,SBD,M
Boys,51.71,7,Jake Robertson,Clifton,51.53,154.22,88.45,149.69,392.36,Single-ply,SBD,M
Boys,51.71,8,Jorge Saldana,Natalia,51.07,151.95,77.11,161.03,390.09,Single-ply,SBD,M
Boys,51.71,9,Johney Phelps,Palestine Westwood,51.17,158.76,70.31,140.61,369.68,Single-ply,SBD,M
Boys,51.71,10,Brian Pafford,Cushing,50.8,131.54,79.38,138.35,349.27,Single-ply,SBD,M
Boys,51.71,11,Steven Pham,Sunnyvale,51.44,136.08,63.5,145.15,344.73,Single-ply,SBD,M
Boys,51.71,12,Daniel Salinas,Chico,51.44,115.67,72.57,147.42,335.66,Single-ply,SBD,M
Boys,55.79,1,Jordan Ruiz,Seagraves,55.52,204.12,127.01,213.19,544.31,Single-ply,SBD,M
Boys,55.79,2,Max Obregon,Dilley,54.52,181.44,104.33,181.44,467.2,Single-ply,SBD,M
Boys,59.87,3,Tyler West,Shelbyville,55.97,174.63,108.86,170.1,453.59,Single-ply,SBD,M
Boys,59.87,4,Van Phan,Lamesa,55.97,172.37,95.25,172.37,439.98,Single-ply,SBD,M
Boys,55.79,5,Russell Wilcox,Leonard,55.25,174.63,77.11,172.37,424.11,Single-ply,SBD,M
Boys,55.79,6,Jonathan Lira,Meridian,53.61,154.22,92.99,170.1,417.3,Single-ply,SBD,M
Boys,55.79,7,Trenton Thedford,Vanderbilt Industrial,55.25,165.56,92.99,149.69,408.23,Single-ply,SBD,M
Boys,55.79,8,Trey Fuller,Jarrell,54.25,158.76,77.11,163.29,399.16,Single-ply,SBD,M
Boys,55.79,9,Sebastian Guerra,Pilot Point,54.98,167.83,83.91,142.88,394.63,Single-ply,SBD,M
Boys,55.79,10,Colten Smith,Kountze,55.7,138.35,74.84,176.9,390.09,Single-ply,SBD,M
Boys,55.79,DQ,Jared Medina,Banquete,54.52,,,,,Single-ply,SBD,M
Boys,59.87,1,Michael Latapie,Palacios,59.51,192.78,145.15,199.58,537.51,Single-ply,SBD,M
Boys,59.87,2,Sean Gibson,Whitney,59.87,197.31,115.67,215.46,528.44,Single-ply,SBD,M
Boys,59.87,3,Jose Morantes,Dublin,58.15,199.58,120.2,206.38,526.17,Single-ply,SBD,M
Boys,59.87,4,Luis Juarez,Bosqueville,58.88,185.97,113.4,204.12,503.49,Single-ply,SBD,M
Boys,59.87,5,Austin Martinez,Mertzon Irion County,58.97,197.31,111.13,183.7,492.15,Single-ply,SBD,M
Boys,59.87,6,Brandon Jones #8,Cumby,59.42,181.44,124.74,185.97,492.15,Single-ply,SBD,M
Boys,59.87,7,Adam Martin,Sudan,58.79,190.51,95.25,185.97,471.74,Single-ply,SBD,M
Boys,59.87,8,Alan Espinosa,Dilley,59.69,188.24,92.99,190.51,471.74,Single-ply,SBD,M
Boys,59.87,9,Kyle Garner,Gunter,59.6,172.37,102.06,181.44,455.86,Single-ply,SBD,M
Boys,59.87,10,Roque Rivas,Bowie,58.97,163.29,99.79,163.29,426.38,Single-ply,SBD,M
Boys,67.13,11,Tj Foley,Edna,59.96,163.29,90.72,167.83,421.84,Single-ply,SBD,M
Boys,59.87,DQ,JarMarkus Boyd,Ore City,58.33,188.24,,,,Single-ply,SBD,M
Boys,67.13,1,Rico Rodriguez,San Diego,66.86,251.74,156.49,263.08,671.32,Single-ply,SBD,M
Boys,67.13,2,Darion McMahan,Stockdale,65.95,251.74,151.95,224.53,628.23,Single-ply,SBD,M
Boys,67.13,3,Ryan Hurst,San Angelo Grape Creek,66.59,238.14,120.2,217.72,576.06,Single-ply,SBD,M
Boys,67.13,4,Matt Valadez,Stockdale,66.22,213.19,129.27,224.53,566.99,Single-ply,SBD,M
Boys,67.13,5,Jose Jimenez #11,Palacios,66.68,215.46,136.08,215.46,566.99,Single-ply,SBD,M
Boys,67.13,6,Tate Hartley,Buffalo,66.59,235.87,108.86,219.99,564.72,Single-ply,SBD,M
Boys,67.13,7,Alex Kyner,Thrall,66.22,201.85,133.81,226.8,562.45,Single-ply,SBD,M
Boys,74.84,8,Olice Rogers,Kemp,67.22,208.65,124.74,208.65,542.04,Single-ply,SBD,M
Boys,67.13,9,Cory Davis,Ore City,67.13,226.8,113.4,195.04,535.24,Single-ply,SBD,M
Boys,67.13,10,Matt Valdez,San Diego,65.23,192.78,111.13,226.8,530.7,Single-ply,SBD,M
Boys,67.13,11,Michael Vargas,Ozona,65.41,226.8,111.13,192.78,530.7,Single-ply,SBD,M
Boys,67.13,12,Ty Slaughter,Whitesboro,66.5,199.58,122.47,204.12,526.17,Single-ply,SBD,M
Boys,67.13,13,Stephen Steele,Pottsboro,66.22,195.04,136.08,190.51,521.63,Single-ply,SBD,M
Boys,67.13,14,Dylan Haralson,Axtell,66.22,213.19,90.72,213.19,517.1,Single-ply,SBD,M
Boys,67.13,15,Noah Seaman,Palacios,66.77,167.83,99.79,179.17,446.79,Single-ply,SBD,M
Boys,67.13,DQ,Elijio Montalvo,Falfurrias,66.68,226.8,,,,Single-ply,SBD,M
Boys,74.84,1,Blake Lehew,Maypearl,73.39,240.4,172.37,226.8,639.57,Single-ply,SBD,M
Boys,74.84,2,Tri Hoang,Wichita Falls City View,74.21,238.14,124.74,260.82,623.69,Single-ply,SBD,M
Boys,74.84,3,Kneeland Donnelly,Hawley,70.67,249.48,142.88,226.8,619.15,Single-ply,SBD,M
Boys,74.84,4,Michael Fitzhugh,Waco Reicher Catholic,72.67,235.87,115.67,254.01,605.55,Single-ply,SBD,M
Boys,74.84,5,Carlos Charles,Bishop,73.75,242.67,149.69,213.19,605.55,Single-ply,SBD,M
Boys,74.84,6,Brandon Guerrero,Childress,74.39,231.33,108.86,242.67,582.87,Single-ply,SBD,M
Boys,74.84,7,Jace Thomas,Newton,74.3,201.85,127.01,233.6,562.45,Single-ply,SBD,M
Boys,74.84,8,Caleb Williams #2,Frankston,73.3,181.44,104.33,249.48,535.24,Single-ply,SBD,M
Boys,74.84,9,Keith Volpitta,Winnie East Chambers,74.48,201.85,124.74,197.31,523.9,Single-ply,SBD,M
Boys,74.84,DQ,Chris Zavodny,Rogers,74.03,215.46,131.54,,,Single-ply,SBD,M
Boys,74.84,DQ,Ricky Benavides,Banquete,73.03,240.4,149.69,,,Single-ply,SBD,M
Boys,74.84,DQ,James Jackson #4,Callisburg,73.21,,,,,Single-ply,SBD,M
Boys,82.1,1,Jose Dominguez,Buffalo,80.83,294.84,163.29,265.35,723.48,Single-ply,SBD,M
Boys,82.1,2,Alfonso Montalvo,Riviera Kaufer,79.2,285.76,167.83,265.35,718.94,Single-ply,SBD,M
Boys,82.1,3,Joe Estrada,Jourdanton,81.56,249.48,188.24,229.06,666.78,Single-ply,SBD,M
Boys,82.1,4,Brennan Sooter,Ponder,78.02,285.76,142.88,226.8,655.44,Single-ply,SBD,M
Boys,89.81,5,Brandon Johnson,Newton,82.19,251.74,149.69,249.48,650.91,Single-ply,SBD,M
Boys,82.1,6,Clancy Manuel,Hawley,81.1,254.01,149.69,242.67,646.37,Single-ply,SBD,M
Boys,82.1,7,Alex O'Neill,Waco Reicher Catholic,81.74,226.8,158.76,226.8,612.35,Single-ply,SBD,M
Boys,82.1,8,John Groff,Pilot Point,81.37,222.26,136.08,244.94,603.28,Single-ply,SBD,M
Boys,82.1,9,John Lawless,Rogers,80.74,208.65,136.08,240.4,585.13,Single-ply,SBD,M
Boys,82.1,10,Tom Lawless,Rogers,76.66,204.12,131.54,238.14,573.79,Single-ply,SBD,M
Boys,82.1,11,Oziel Rios,Palacios,80.1,199.58,154.22,217.72,571.53,Single-ply,SBD,M
Boys,82.1,12,Devon Hoelscher,Ballinger,81.19,215.46,154.22,199.58,569.26,Single-ply,SBD,M
Boys,82.1,DQ,Damian Kozak,Bremond,82.01,269.89,165.56,,,Single-ply,SBD,M
Boys,82.1,DQ,Marcos Cardenas,Jarrell,81.19,,,,,Single-ply,SBD,M
Boys,89.81,1,AJ Alvarez,Bishop,88.27,306.17,183.7,265.35,755.23,Single-ply,SBD,M
Boys,89.81,2,Levi Irby,Hawley,88.09,272.16,170.1,242.67,684.92,Single-ply,SBD,M
Boys,89.81,3,Isaiah Martinez,Commerce,87.36,276.69,167.83,238.14,682.66,Single-ply,SBD,M
Boys,89.81,4,Brody Jones,Crawford,85.73,272.16,156.49,235.87,664.51,Single-ply,SBD,M
Boys,89.81,5,Mark Bocanegra,Jourdanton,89.27,288.03,158.76,213.19,659.98,Single-ply,SBD,M
Boys,89.81,6,David Garza,Cotulla,89.81,263.08,142.88,244.94,650.91,Single-ply,SBD,M
Boys,99.79,7,Derek Franke,Yorktown,89.99,240.4,163.29,240.4,644.1,Single-ply,SBD,M
Boys,89.81,8,Jordan Garcia #6,Cotulla,89.09,235.87,136.08,263.08,635.03,Single-ply,SBD,M
Boys,89.81,9,Charlie Thomas,Coleman,87.91,242.67,138.35,240.4,621.42,Single-ply,SBD,M
Boys,89.81,10,Omar Cardoso,Waco Reicher Catholic,87.54,244.94,122.47,249.48,616.89,Single-ply,SBD,M
Boys,89.81,11,Chris Sweat,Anahuac,88.36,222.26,163.29,229.06,614.62,Single-ply,SBD,M
Boys,89.81,12,True Miller,Bowie,89.18,244.94,111.13,240.4,596.47,Single-ply,SBD,M
Boys,89.81,13,Lucas D'Agostino,Oakridge School,84.64,226.8,136.08,231.33,594.21,Single-ply,SBD,M
Boys,89.81,14,Keenan Allen,Mount Vernon,86.82,204.12,136.08,215.46,555.65,Single-ply,SBD,M
Boys,89.81,15,Blaine Acevedo,Winnie East Chambers,89.09,222.26,61.23,222.26,505.76,Single-ply,SBD,M
Boys,99.79,1,Luis Lopez #3,San Diego,99.25,365.14,204.12,317.51,886.77,Single-ply,SBD,M
Boys,99.79,2,Matt Garcia,Ben Bolt-Palito Blanco,94.98,297.1,204.12,272.16,773.37,Single-ply,SBD,M
Boys,99.79,3,Auggie Woodruff,Ballinger,92.8,281.23,172.37,226.8,680.39,Single-ply,SBD,M
Boys,99.79,4,Tony Ledesma,Riviera Kaufer,94.98,238.14,158.76,278.96,675.85,Single-ply,SBD,M
Boys,99.79,5,Ernest Hafford,Kountze,96.8,272.16,145.15,256.28,673.58,Single-ply,SBD,M
Boys,99.79,6,Brendon Breland,Banquete,96.71,267.62,154.22,240.4,662.24,Single-ply,SBD,M
Boys,99.79,7,Jeff Stark,Troy,90.45,226.8,181.44,235.87,644.1,Single-ply,SBD,M
Boys,99.79,8,Josef Fowler,Rogers,98.16,226.8,170.1,238.14,635.03,Single-ply,SBD,M
Boys,99.79,9,Shelton Zarate,Coleman,97.07,263.08,145.15,215.46,623.69,Single-ply,SBD,M
Boys,99.79,10,Ej Lozada,Jacksboro,94.71,231.33,129.27,249.48,610.08,Single-ply,SBD,M
Boys,99.79,11,Thomas Morales,Whitesboro,95.8,242.67,138.35,222.26,603.28,Single-ply,SBD,M
Boys,99.79,12,Kadarrian Chism,Hughes Springs,96.52,204.12,133.81,233.6,571.53,Single-ply,SBD,M
Boys,99.79,13,Marcus Escobedo,Hitchcock,98.61,226.8,142.88,188.24,557.92,Single-ply,SBD,M
Boys,99.79,DQ,Peter Calhoun,Palestine Westwood,95.98,,,,,Single-ply,SBD,M
Boys,109.77,1,Reno Perez,San Diego,103.15,344.73,185.97,292.57,823.27,Single-ply,SBD,M
Boys,109.77,2,Enrique Lugo,Jourdanton,108.41,342.46,206.38,274.42,823.27,Single-ply,SBD,M
Boys,124.74,3,Kelton Henderson,Teague,109.86,317.51,204.12,260.82,782.45,Single-ply,SBD,M
Boys,109.77,4,Reggie Scales,New Boston,107.95,303.91,204.12,258.55,766.57,Single-ply,SBD,M
Boys,109.77,5,Ragan Henderson,Rice,105.41,278.96,170.1,306.17,755.23,Single-ply,SBD,M
Boys,109.77,6,Ej Waggy,Rogers,107.41,285.76,183.7,249.48,718.94,Single-ply,SBD,M
Boys,109.77,7,Riley Stottle,Pilot Point,109.68,272.16,204.12,238.14,714.41,Single-ply,SBD,M
Boys,109.77,8,Leanthony Cook,Ben Bolt-Palito Blanco,105.87,278.96,183.7,235.87,698.53,Single-ply,SBD,M
Boys,109.77,9,Jordan Stokes,Coahoma,101.06,267.62,158.76,249.48,675.85,Single-ply,SBD,M
Boys,109.77,10,Shane Sibila,Clifton,108.95,274.42,154.22,240.4,669.05,Single-ply,SBD,M
Boys,109.77,11,Oscar Valdez,Clyde,108.14,244.94,151.95,242.67,639.57,Single-ply,SBD,M
Boys,109.77,12,Chris Aivaliotis,Ponder,106.68,238.14,136.08,238.14,612.35,Single-ply,SBD,M
Boys,109.77,13,Barrett Franzen,Winnie East Chambers,106.41,224.53,140.61,226.8,591.94,Single-ply,SBD,M
Boys,124.74,1,Matt Poursoltani,Pilot Point,123.29,294.84,317.51,249.48,861.83,Single-ply,SBD,M
Boys,124.74,2,Riley Woodruff,Ballinger,116.03,326.59,172.37,272.16,771.11,Single-ply,SBD,M
Boys,124.74,3,Homero Ramirez,Floydada,116.21,285.76,183.7,285.76,755.23,Single-ply,SBD,M
Boys,124.74,4,Jones Terry,Elysian Fields,119.48,283.5,195.04,256.28,734.82,Single-ply,SBD,M
Boys,124.74,5,Billy Golding,Salado,114.31,308.44,181.44,231.33,721.21,Single-ply,SBD,M
Boys,124.74,6,John Brock,Henrietta,119.75,299.37,158.76,233.6,691.73,Single-ply,SBD,M
Boys,124.74,7,Trent Andrews,Bosqueville,123.29,272.16,140.61,263.08,675.85,Single-ply,SBD,M
Boys,124.74,8,Austin Speed,Goliad,118.39,272.16,151.95,249.48,673.58,Single-ply,SBD,M
Boys,124.74,9,Dave Lewis,Newton,118.66,240.4,140.61,235.87,616.89,Single-ply,SBD,M
Boys,124.74,10,Logan Robinson,Edna,119.02,226.8,122.47,240.4,589.67,Single-ply,SBD,M
Boys,124.74,DQ,Matthew Grimaldo,George West,117.21,294.84,,,,Single-ply,SBD,M
Boys,124.74,DQ,Cortez Crosby,Commerce,124.28,,,,,Single-ply,SBD,M
Boys,124.74+,1,Diego Montoya,San Saba,135.53,328.85,195.04,312.98,836.88,Single-ply,SBD,M
Boys,124.74+,2,Brian Cain,Thrall,166.38,351.53,210.92,274.42,836.88,Single-ply,SBD,M
Boys,124.74+,3,Jacob Barton,Callisburg,134.9,317.51,226.8,267.62,811.93,Single-ply,SBD,M
Boys,124.74+,4,Jessie Wilson,Whitney,145.06,303.91,226.8,278.96,809.66,Single-ply,SBD,M
Boys,124.74+,5,Josh Byrd,Waskom,159.94,362.87,204.12,235.87,802.86,Single-ply,SBD,M
Boys,124.74+,6,Michael Reyes,Natalia,151.05,340.19,165.56,251.74,757.5,Single-ply,SBD,M
Boys,124.74+,7,Anderson Daniels,George West,129,317.51,181.44,238.14,737.09,Single-ply,SBD,M
Boys,124.74+,8,Shakeim Woodberry,Clarksville,133.99,288.03,183.7,265.35,737.09,Single-ply,SBD,M
Boys,124.74+,9,Matt Olivarez,Sudan,174.09,306.17,165.56,254.01,725.75,Single-ply,SBD,M
Boys,124.74+,10,Hunter Bergeron,Anahuac,134.63,263.08,149.69,240.4,653.17,Single-ply,SBD,M
Boys,124.74+,11,Kaleb Espinoza,Howe,163.57,272.16,127.01,249.48,648.64,Single-ply,SBD,M
Boys,124.74+,12,Gray Laskoskie,Hitchcock,153.5,226.8,154.22,210.92,591.94,Single-ply,SBD,M
Boys,124.74+,DQ,Edgar Guerrero,Friona,136.26,365.14,181.44,,,Single-ply,SBD,M
