Place,Name,Division,Country,BodyweightKg,Squat1Kg,Squat2Kg,Squat3Kg,Best3SquatKg,Squat4Kg,Bench1Kg,Bench2Kg,Bench3Kg,Best3BenchKg,Bench4Kg,Deadlift1Kg,Deadlift2Kg,Deadlift3Kg,Best3DeadliftKg,Deadlift4Kg,TotalKg,WeightClassKg,Sex,CyrillicName,BirthYear,Equipment,Event
1,Pavel Balážik,Open,Slovakia,55,110,117.5,125,125,-127.5,82.5,86,90,90,-92.5,145,152.5,160.5,160.5,,375.5,56,M,,1979,Wraps,SBD
1,Ernesto Milian,Masters 65-69,USA,55.1,-100,-100,100,100,,72.5,77.5,82.5,82.5,,150,160,170,170,,352.5,56,M,,1947,Wraps,SBD
1,Sami Vaskelainen,Open,Finland,66.7,170,180,,180,,110,-120,120,120,,210,228,,228,,528,67.5,M,,1984,Wraps,SBD
2,Vincent Bourgeois,Open,France,67.3,110,122.5,135,135,,112.5,117.5,-120,117.5,,-130,145,-155,145,,397.5,67.5,M,,1981,Wraps,SBD
1,Henri Vauto,Open,Finland,73.5,175,190,200,200,,130,137.5,142.5,142.5,,200,215,220,220,,562.5,75,M,,1987,Wraps,SBD
2,Marko Helynen,Open,Finland,74.4,180,195,205,205,,130,137.5,140,140,,190,205,212.5,212.5,217.5,557.5,75,M,,1971,Wraps,SBD
1,Marko Helynen,Masters 40-44,Finland,74.4,180,195,205,205,,130,137.5,140,140,,190,205,212.5,212.5,217.5,557.5,75,M,,1971,Wraps,SBD
1,Vladlen Astaptsev,Masters 45-49,Finland,73.7,125,140,145,145,,90,95,100,100,,165,180,-186,180,,425,75,M,,1965,Wraps,SBD
1,Erni Gregorčič,Submasters 35-39,Slovakia,74.3,180,-200,200,200,,130,140,145,145,,200,215,226,226,230,571,75,M,,1976,Wraps,SBD
1,Andrej Mostovenko,Juniors 20-23,Germany,82.5,260,280,290,290,,160,172,-180,172,,265,285,300,300,,762,82.5,M,,1990,Wraps,SBD
2,Roberts Stepenko,Juniors 20-23,Latvia,81.6,200,210,,210,,110,115,-120,115,,210,220,230,230,,555,82.5,M,,1990,Wraps,SBD
3,Mikhail Tukmakov,Juniors 20-23,Russia,79.2,185,192.5,-200,192.5,,110,117.5,-120,117.5,,175,187.5,200,200,,510,82.5,M,Михаил Тукмаков,1990,Wraps,SBD
1,Jan Lindqvist,Open,Finland,81.4,200,230,-240,230,,160,165,-170,165,,270,290,-300,290,,685,82.5,M,,1971,Wraps,SBD
2,Ange Galati,Open,Australia,81.4,160,185,200,200,,180,200,-210.5,200,,180,200,220,220,,620,82.5,M,,1968,Wraps,SBD
1,Jan Lindqvist,Masters 40-44,Finland,81.4,200,230,-240,230,,160,165,-170,165,,270,290,-300,290,,685,82.5,M,,1971,Wraps,SBD
2,Dmitrijs Stepenko,Masters 40-44,Latvia,81.2,200,215,-225,215,,130,140,150,150,,200,220,230,230,,595,82.5,M,,1970,Wraps,SBD
1,Ange Galati,Masters 45-49,Australia,81.4,160,185,200,200,,180,200,-210.5,200,,180,200,220,220,,620,82.5,M,,1968,Wraps,SBD
1,Timo Eloranta,Open,Finland,90,230,250,-267.5,250,,130,140,-150,140,,250,265,277.5,277.5,,667.5,90,M,,1986,Wraps,SBD
2,Janne Rissanen,Open,Finland,89.2,200,230,-245,230,,115,130,-142.5,130,,220,240,-307.5,240,,600,90,M,,1985,Wraps,SBD
3,Nino Pevec,Open,Slovakia,89.7,200,-212.5,217.5,217.5,,140,-147.5,-147.5,140,,220,235,242.5,242.5,,600,90,M,,1982,Wraps,SBD
1,Aleksandrs Miglāns,Masters 50-54,Latvia,87.3,205,215,222,222,,145,152.5,-157.5,152.5,,220,235,,235,,609.5,90,M,,1963,Wraps,SBD
1,Jouko Kourumäki,Masters 55-59,Finland,89.3,200,220,227.5,227.5,,150,-157.5,-157.5,150,,230,250,260,260,,637.5,90,M,,1957,Wraps,SBD
1,LB Baker,Masters 75-79,USA,86.8,100,-120,120,120,,90,95,100,100,,140,150,160,160,,380,90,M,,1937,Wraps,SBD
1,Juha Lipponen,Submasters 35-39,Finland,87.5,170,-185,-185,170,,130,135,-140,135,,200,210,-220,210,,515,90,M,,1975,Wraps,SBD
1,Teemu Hakala,Juniors 20-23,Finland,98.3,230,240,250,250,,180,190,-195,190,,250,265,-275,265,,705,100,M,,1990,Wraps,SBD
1,Jyrki Varvas,Open,Finland,100,280,305,315,315,,175,187.5,,187.5,,290,325,-335,325,,827.5,100,M,,1979,Wraps,SBD
2,Ville Rantanen,Open,Finland,98.5,250,260,-270,260,,190,-200,-205,190,,270,280,290,290,,740,100,M,,1988,Wraps,SBD
3,Jani Vepsäläinen,Open,Finland,97.9,247.5,-262,,247.5,,165,172.5,180,180,,230,247.5,260,260,,687.5,100,M,,1975,Wraps,SBD
4,Damir Sabo,Open,Serbia,99.9,220,-240,-240,220,,150,-160,160,160,,250,275,-300,275,,655,100,M,,1978,Wraps,SBD
5,Zurab Tavartkiladze,Open,Georgia,97.9,200,-220,-230,200,,150,160,-170,160,,-280,280,-300,280,,640,100,M,,1987,Wraps,SBD
1,Tatu Karhu,Masters 45-49,Finland,98.2,180,190,200,200,,145,155,160,160,,230,242.5,252.5,252.5,,612.5,100,M,,1967,Wraps,SBD
1,Vasilijs Drobovs,Masters 55-59,Latvia,99.5,180,195,-207.5,195,,-142.5,142.5,150,150,153,200,210,220,220,,565,100,M,,1958,Wraps,SBD
1,Damir Sabo,Submasters 35-39,Serbia,100,-220,220,-240,220,,140,160,-170,160,,265,285,-295,285,,665,100,M,,1978,Wraps,SBD
1,Teemu Tulonen,Juniors 20-23,Finland,109.9,260,275,290,290,,160,170,177.5,177.5,,280,300,310,310,,777.5,110,M,,1992,Wraps,SBD
2,Tyler Cummings,Juniors 20-23,USA,108.8,262.5,277.5,285,285,,170,187.5,-195,187.5,,267.5,285,300,300,,772.5,110,M,,1991,Wraps,SBD
1,Jani-Pekka Eirala,Open,Finland,110,300,320,-330,320,,220,230,235,235,,330,-350,-350,330,,885,110,M,,1987,Wraps,SBD
2,Jarno Leppämäki,Open,Finland,109.1,240,260,272.5,272.5,,205,212.5,220,220,,250,270,277.5,277.5,,770,110,M,,1985,Wraps,SBD
3,Marko Pölkki,Open,Finland,108.6,270,290,-310,290,,145,152.5,-160,152.5,,280,300,-327.5,300,,742.5,110,M,,1984,Wraps,SBD
1,Marco Lamprecht,Masters 40-44,Germany,107.8,255,280,,280,,140,150,155,155,,240,276,-291,276,,711,110,M,,1973,Wraps,SBD
2,Jarkko Holviala,Masters 40-44,Finland,104.6,150,170,-180,170,,110,120,-130,120,,200,220,-230,220,,510,110,M,,1971,Wraps,SBD
1,Andy Williamson,Masters 45-49,USA,106.9,160,175,185,185,,125,-137.5,-137.5,125,,185,195,205,205,,515,110,M,,1965,Wraps,SBD
1,Sami Oinonen,Submasters 35-39,Finland,109.1,265,275,-285,275,,155,165,175,175,,265,-295,,265,,715,110,M,,1975,Wraps,SBD
1,Sergej Moser,Open,Germany,120.4,320,340,360,360,,210,220,,220,,320,340,350,350,,930,125,M,,1976,Wraps,SBD
2,Peter Vetterli,Open,Switzerland,120,250,272.5,-280,272.5,,175,187.5,-192.5,187.5,,290,310,-320,310,,770,125,M,,1980,Wraps,SBD
3,Giorgi Davitashvili,Open,Georgia,122.7,200,-240,-250,200,,150,,,150,,180,240,250,250,,600,125,M,,1978,Wraps,SBD
4,Janne Kantala,Open,Finland,117.7,170,-220,-230,170,,140,-150,-150,140,,200,250,-270,250,,560,125,M,,1982,Wraps,SBD
1,Petri Billy Haavisto,Masters 45-49,Finland,117.7,220,245,260,260,,180,-200,-200,180,,240,270,-280,270,,710,125,M,,1965,Wraps,SBD
1,Didier Michelon,Masters 50-54,France,118.4,180,-210,210,210,,180,195,202.5,202.5,,150,180,205,205,,617.5,125,M,,1963,Wraps,SBD
1,Zurab Chavchanidze,Masters 60-64,Georgia,124.9,-60,80,90,90,,140,150,155,155,,120,155,,155,,400,125,M,,1953,Wraps,SBD
1,Nikolay Iov,Juniors 20-23,Russia,126.3,230,255,-275,255,,180,195,-205,195,,250,270,-285,270,,720,140,M,Николай Иов,1990,Wraps,SBD
1,Danny Schmalz,Submasters 35-39,Germany,126.8,-280,280,-300,280,,170,185,-192.5,185,,260,270,280,280,,745,140,M,,1975,Wraps,SBD
1,Rami Anttila,Juniors 20-23,Finland,157.2,200,215,225,225,,115,122.5,130,130,,220,245,-260,245,,600,140+,M,,1991,Wraps,SBD
1,Andrey Malanichev,Open,Russia,146,,435,-455,435,,230,250,260,260,,370,391,405,405,,1100,140+,M,Андрей Маланичев,1977,Wraps,SBD
2,Roger Karimus,Open,Finland,146.5,230,250,270,270,,220,-240,240,240,,330,-350,,330,,840,140+,M,,1982,Wraps,SBD
1,Lucila McMahon,Masters 70-74,USA,46.3,57.5,-62.5,-62.5,57.5,,35,37.5,-40,37.5,,72.5,80,-82.5,80,,175,48,F,,1942,Wraps,SBD
1,Olga Mikhaylova,Open,Russia,52,117.5,127.5,132.5,132.5,,-62.5,62.5,67.5,67.5,,150,160,166,166,,366,52,F,Ольга Михайлова,1971,Wraps,SBD
2,Milla Polkki,Open,Finland,51.5,80,90,-100,90,,50,55,-60,55,,100,110,125,125,,270,52,F,,1983,Wraps,SBD
1,Olga Mikhaylova,Masters 40-44,Russia,52,117.5,127.5,132.5,132.5,,-62.5,62.5,67.5,67.5,,150,160,166,166,,366,52,F,Ольга Михайлова,1971,Wraps,SBD
1,Svetlana Baker,Masters 55-59,USA,50.7,75,80,-82.5,80,,47.5,50,51.5,51.5,52.5,115,120,122.5,122.5,,254,52,F,,1954,Wraps,SBD
1,Mariša Golob,Juniors 20-23,Slovakia,55.4,105,115,-120,115,,70,77.5,80,80,81,120,130,135,135,,330,56,F,,1990,Wraps,SBD
1,Marina Lemenovskaya,Open,Germany,54.7,-120,-120,120,120,,90,95,-100,95,,135,145,155,155,,370,56,F,Марина Леменовская,1985,Wraps,SBD
1,Mia Kukkonen,Masters 40-44,Finland,58.5,75,87.5,100,100,,45,50,-52.5,50,,105.5,115,120,120,125,270,60,F,,1971,Wraps,SBD
1,Cornelia Vetterli,Open,Switzerland,64.6,-120,120,132.5,132.5,,65,-70,72.5,72.5,,147.5,155,160,160,,365,67.5,F,,1982,Wraps,SBD
DQ,Evelyn Haapala,Open,Finland,64.8,-120,-122.5,-122.5,,,,,,,,,,,,,,67.5,F,,1980,Wraps,SBD
1,Maiju Hilander,Masters 55-59,Finland,62.5,70,-80,-80,70,,40,-47.5,47.5,47.5,,105,120,-130,120,,237.5,67.5,F,,1957,Wraps,SBD
1,Anni Vuorio,Teen 18-19,Finland,71.9,85,92.5,100,100,,47.5,52.5,-55,52.5,,100,110,122.5,122.5,,275,75,F,,1994,Wraps,SBD
1,Nina Tiivola,Open,Finland,74.5,120,135,-150,135,,70,80,90,90,,140,155,170,170,,395,75,F,,1978,Wraps,SBD
1,Tatyana Merezhko,Open,Russia,82.2,215,227.5,232.5,232.5,236,102.5,-110,110,110,,210,222.5,230,230,,572.5,82.5,F,Татьяна Мережко,1978,Wraps,SBD
2,Jenni Erola,Open,Finland,77.1,115,125,135,135,,67.5,72.5,-77.5,72.5,,145,155,165,165,,372.5,82.5,F,,1984,Wraps,SBD
1,Eija Karhu,Masters 50-54,Finland,81.7,70,80,85,85,,40,45,-47.5,45,,-120,120,127.5,127.5,132.5,257.5,82.5,F,,1963,Wraps,SBD
1,Anna Khudayarov,Open,Finland,84.6,210,230,-240,230,,125,-135,-135,125,,195,210,215,215,,570,90,F,,1988,Wraps,SBD
1,Topi Sorvari,Open,Finland,66.7,,,,,,100,117.5,-120,117.5,,,,,,,117.5,67.5,M,,1985,Raw,B
2,Vincent Bourgeois,Open,France,67.2,,,,,,110,-120,-120,110,,,,,,,110,67.5,M,,1981,Raw,B
1,Russ Tripp,Masters 45-49,USA,67.4,,,,,,125,-130,-130,125,,,,,,,125,67.5,M,,1967,Raw,B
1,Ivan Pavlovic,Submasters 35-39,Serbia,67.4,,,,,,110,117.5,120,120,-130.5,,,,,,120,67.5,M,,1975,Raw,B
1,Vladlen Astaptsev,Masters 45-49,Finland,74,,,,,,90,97.5,100,100,-103,,,,,,100,75,M,,1965,Raw,B
1,Clotário Portugal Neto,Masters 60-64,Brazil,71.3,,,,,,100,105,-115,105,,,,,,,105,75,M,,1953,Raw,B
1,Erni Gregorčič,Submasters 35-39,Slovakia,74.1,,,,,,130,140,145,145,,,,,,,145,75,M,,1976,Raw,B
1,Ange Galati,Open,Australia,78.6,,,,,,200,210.5,-215,210.5,,,,,,,210.5,82.5,M,,1968,Raw,B
2,Mikko Helén,Open,Finland,82,,,,,,180,190,,190,,,,,,,190,82.5,M,,1984,Raw,B
3,Vladimir Belyaev,Open,Russia,82.4,,,,,,160,165,-170,165,,,,,,,165,82.5,M,Владимир Беляев,1981,Raw,B
4,Petri Säkkinen,Open,Finland,82.2,,,,,,150,-162.5,-162.5,150,,,,,,,150,82.5,M,,1982,Raw,B
1,Ange Galati,Masters 45-49,Australia,78.6,,,,,,200,210.5,-215,210.5,,,,,,,210.5,82.5,M,,1968,Raw,B
1,Aimo Mursu,Masters 70-74,Finland,82.3,,,,,,-70,70,80,80,,,,,,,80,82.5,M,,1942,Raw,B
1,Severi Salonen,Teen 16-17,Finland,88.9,,,,,,105,112.5,-120,112.5,,,,,,,112.5,90,M,,1997,Raw,B
1,Davit Chitinashvili,Juniors 20-23,Georgia,89.6,,,,,,170,180,-182.5,180,,,,,,,180,90,M,,1991,Raw,B
1,Rami Leiviskä,Open,Finland,89.5,,,,,,180,190,-200,190,,,,,,,190,90,M,,1978,Raw,B
2,Avtandil Khelashvili,Open,Georgia,87.9,,,,,,150,160,-162.5,160,,,,,,,160,90,M,,1989,Raw,B
3,Klaus Renfors,Open,Finland,90,,,,,,142.5,152.5,-155,152.5,,,,,,,152.5,90,M,,1973,Raw,B
4,Mikko Leinonen,Open,Finland,89.6,,,,,,150,-162.5,-162.5,150,,,,,,,150,90,M,,1988,Raw,B
5,Toni Eronen,Open,Finland,87.8,,,,,,140,147.5,-155,147.5,,,,,,,147.5,90,M,,1984,Raw,B
1,Klaus Renfors,Masters 40-44,Finland,90,,,,,,142.5,152.5,-155,152.5,,,,,,,152.5,90,M,,1973,Raw,B
1,Erkki Hollo,Masters 45-49,Finland,88.2,,,,,,110,120,125,125,,,,,,,125,90,M,,1967,Raw,B
1,Petri Kalevi Mäkinen,Masters 50-54,Finland,88.7,,,,,,120,-127.5,-127.5,120,,,,,,,120,90,M,,1963,Raw,B
1,Reijo Murto,Masters 55-59,Finland,87.4,,,,,,150,160,-162.5,160,,,,,,,160,90,M,,1957,Raw,B
1,Jorma Lempinen,Masters 60-64,Finland,87.9,,,,,,145,153,157.5,157.5,-160,,,,,,157.5,90,M,,1950,Raw,B
1,Rami Leiviskä,Submasters 35-39,Finland,89.5,,,,,,180,190,-200,190,,,,,,,190,90,M,,1978,Raw,B
1,Jukka-Pekka Tiilikka,Juniors 20-23,Finland,98.2,,,,,,-160,160,-180,160,,,,,,,160,100,M,,1991,Raw,B
1,Atte Poikonen,Open,Finland,98.1,,,,,,207.5,-212.5,212.5,212.5,,,,,,,212.5,100,M,,1982,Raw,B
2,Ivan Solntsev,Open,Russia,97.9,,,,,,195,200,-202.5,200,,,,,,,200,100,M,Иван Солнцев,1974,Raw,B
3,Kim Päivöke,Open,Finland,93.4,,,,,,160,175,185,185,,,,,,,185,100,M,,1972,Raw,B
4,Joni Kivelä,Open,Finland,99.5,,,,,,170,-180,-180,170,,,,,,,170,100,M,,1989,Raw,B
5,Zurab Tavartkiladze,Open,Georgia,95.1,,,,,,155,160,-165,160,,,,,,,160,100,M,,1987,Raw,B
6,Pasi Jokela,Open,Finland,98.6,,,,,,140,147.5,150.5,150.5,,,,,,,150.5,100,M,,1962,Raw,B
7,Mikko Mäntymäki,Open,Finland,98.6,,,,,,140,-145,,140,,,,,,,140,100,M,,1971,Raw,B
1,Artūrs Mugdenko,Masters 40-44,Latvia,91.1,,,,,,185,190,-192.5,190,,,,,,,190,100,M,,1971,Raw,B
2,Kim Päivöke,Masters 40-44,Finland,93.4,,,,,,160,175,185,185,,,,,,,185,100,M,,1972,Raw,B
3,Jari-Pekka Suominen,Masters 40-44,Finland,99.2,,,,,,180,185,-192.5,185,,,,,,,185,100,M,,1971,Raw,B
DQ,Mikko Mäntymäki,Masters 40-44,Finland,98.6,,,,,,140,-145,,140,,,,,,,,100,M,,1971,Raw,B
1,Pasi Jokela,Masters 50-54,Finland,98.6,,,,,,140,147.5,150.5,150.5,,,,,,,150.5,100,M,,1962,Raw,B
2,Juha Ojanen,Masters 50-54,Finland,96.8,,,,,,140,146,-150,146,,,,,,,146,100,M,,1961,Raw,B
1,Garry Glenn,Masters 55-59,USA,90.4,,,,,,125,137.5,-147.5,137.5,,,,,,,137.5,100,M,,1954,Raw,B
DQ,Michael Kidd,Masters 55-59,USA,98,,,,,,,,,,,,,,,,,100,M,,1955,Raw,B
1,Hannu Jarvinen,Masters 60-64,Finland,97.4,,,,,,125,130,-135,130,,,,,,,130,100,M,,1951,Raw,B
1,Reinis Kindzulis,Juniors 20-23,Latvia,107.2,,,,,,210,225,235,235,,,,,,,235,110,M,,1992,Raw,B
2,Iiro Jokipalo,Juniors 20-23,Finland,109.4,,,,,,160,165,-170,165,,,,,,,165,110,M,,1991,Raw,B
1,Joonas Juvonen,Open,Finland,104.5,,,,,,225,-235,-240,225,,,,,,,225,110,M,,1986,Raw,B
2,Jarno Leppämäki,Open,Finland,109.1,,,,,,-210,210,-227.5,210,,,,,,,210,110,M,,1985,Raw,B
2,Jan Johansson,Open,Finland,109.7,,,,,,200,-207.5,-207.5,200,,,,,,,200,110,M,,1972,Raw,B
4,Matias Neuvonen,Open,Finland,106.3,,,,,,155,-160,,155,,,,,,,155,110,M,,1989,Raw,B
5,Juha Pukkila,Open,Finland,103.6,,,,,,145,152.5,-160,152.5,,,,,,,152.5,110,M,,1963,Raw,B
1,Jan Johansson,Masters 40-44,Finland,109.7,,,,,,200,-207.5,-207.5,200,,,,,,,200,110,M,,1972,Raw,B
2,Jarkko Holviala,Masters 40-44,Finland,101.9,,,,,,100,120,-130,120,,,,,,,120,110,M,,1971,Raw,B
1,Juha Pukkila,Masters 50-54,Finland,103.6,,,,,,145,152.5,-160,152.5,,,,,,,152.5,110,M,,1963,Raw,B
2,Jere Marttila,Masters 50-54,Finland,103.8,,,,,,135,140,-147.5,140,,,,,,,140,110,M,,1962,Raw,B
1,Miklos Peterdi,Masters 55-59,Switzerland,103,,,,,,-160,170,-180,170,,,,,,,170,110,M,,1956,Raw,B
1,Paavo Eskelinen,Masters 60-64,Finland,105.4,,,,,,130,137.5,142.5,142.5,,,,,,,142.5,110,M,,1949,Raw,B
1,Sami Huhtala,Submasters 35-39,Finland,107,,,,,,150,,,150,,,,,,,150,110,M,,1974,Raw,B
1,Jussi Laakso,Juniors 20-23,Finland,115.7,,,,,,150,160,165,165,,,,,,,165,125,M,,1991,Raw,B
1,Hannu Hirvonen,Open,Finland,117.3,,,,,,230,-237.5,-240,230,,,,,,,230,125,M,,1979,Raw,B
2,Peter Vetterli,Open,Switzerland,118.2,,,,,,175,185,190,190,,,,,,,190,125,M,,1980,Raw,B
1,Hans Rosen Göran,Masters 45-49,Sweden,116.3,,,,,,192.5,202.5,212.5,212.5,-220,,,,,,212.5,125,M,,1965,Raw,B
2,Petri Billy Haavisto,Masters 45-49,Finland,119.9,,,,,,185,-200,-200,185,,,,,,,185,125,M,,1965,Raw,B
1,Didier Michelon,Masters 50-54,France,118.2,,,,,,180,190.5,201,201,,,,,,,201,125,M,,1963,Raw,B
2,Dainis Polis,Masters 50-54,Latvia,115.2,,,,,,155,-170,175,175,,,,,,,175,125,M,,1959,Raw,B
1,Zurab Chavchanidze,Masters 60-64,Georgia,122.9,,,,,,150,-155,,150,,,,,,,150,125,M,,1953,Raw,B
1,Mauno Kontto,Masters 70-74,Finland,113.1,,,,,,80,90,100,100,,,,,,,100,125,M,,1941,Raw,B
1,Mikloš Mihajlović,Submasters 35-39,Serbia,117,,,,,,200,211,216,216,220,,,,,,216,125,M,,1976,Raw,B
2,Giorgi Davitashvili,Submasters 35-39,Georgia,121,,,,,,170,190,,190,,,,,,,190,125,M,,1978,Raw,B
1,Nikolay Iov,Juniors 20-23,Russia,126,,,,,,-195,195,-205,195,,,,,,,195,140,M,Николай Иов,1990,Raw,B
1,Sami Tiilikainen,Open,Finland,126.2,,,,,,250,260,-265,260,,,,,,,260,140,M,,1973,Raw,B
2,Wayne Howlett,Open,Australia,125.8,,,,,,220,240,-250,240,,,,,,,240,140,M,,1980,Raw,B
3,Jony Krokberg,Open,Finland,126.9,,,,,,180,190,-200,190,,,,,,,190,140,M,,1978,Raw,B
1,Sami Tiilikainen,Masters 40-44,Finland,126.2,,,,,,250,260,-265,260,,,,,,,260,140,M,,1973,Raw,B
1,Jony Krokberg,Submasters 35-39,Finland,126.9,,,,,,180,190,-200,190,,,,,,,190,140,M,,1978,Raw,B
1,Rikard Erlandsson,Open,Sweden,149.8,,,,,,230,246,-255,246,,,,,,,246,140+,M,,1977,Raw,B
1,Matic Dragan,Masters 45-49,Serbia,147.5,,,,,,160,170,-182.5,170,,,,,,,170,140+,M,,1964,Raw,B
1,Rikard Erlandsson,Submasters 35-39,Sweden,149.8,,,,,,230,246,-255,246,,,,,,,246,140+,M,,1977,Raw,B
1,Dana Tripp,Masters 40-44,USA,47,,,,,,42.5,45.5,46,46,-46.5,,,,,,46,48,F,,1972,Raw,B
1,Janita Krokberg,Teen 13-15,Finland,55.3,,,,,,42.5,45,-47.5,45,,,,,,,45,56,F,,1999,Raw,B
1,Mariša Golob,Juniors 20-23,Slovakia,55.6,,,,,,70,77.5,80,80,,,,,,,80,56,F,,1990,Raw,B
1,Marina Lemenovskaya,Open,Germany,54.2,,,,,,82.5,90,97.5,97.5,,,,,,,97.5,56,F,Марина Леменовская,1985,Raw,B
1,Zinaida Iov,Masters 40-44,Ukraine,55.1,,,,,,35,37.5,-40,37.5,,,,,,,37.5,56,F,,1970,Raw,B
1,Maria Perrakoski,Open,Finland,74.8,,,,,,75,80,-87.5,80,,,,,,,80,75,F,,1975,Raw,B
1,Elena Sheverdina,Masters 45-49,Russia,74,,,,,,125,130,135,135,137,,,,,,135,75,F,Елена Шевердина,1968,Raw,B
1,Maria Perrakoski,Submasters 35-39,Finland,74.8,,,,,,75,80,-87.5,80,,,,,,,80,75,F,,1975,Raw,B
1,Malin Sundberg,Juniors 20-23,Sweden,77.5,,,,,,55,60,65,65,,,,,,,65,82.5,F,,1990,Raw,B
1,Virpi Pukkila,Open,Finland,76.5,,,,,,80,87.5,92.5,92.5,-97.5,,,,,,92.5,82.5,F,,1967,Raw,B
2,Sini-Marja Perala,Open,Finland,80.4,,,,,,75,82.5,-92.5,82.5,,,,,,,82.5,82.5,F,,1980,Raw,B
1,Virpi Pukkila,Masters 45-49,Finland,76.5,,,,,,80,87.5,92.5,92.5,-97.5,,,,,,92.5,82.5,F,,1967,Raw,B
1,Anna-Maria Rosén,Open,Sweden,88.6,,,,,,110,120,-130,120,,,,,,,120,90,F,,1972,Raw,B
1,Eveliina Ketola,Juniors 20-23,Finland,98.9,,,,,,55,60,-62.5,60,,,,,,,60,90+,F,,1990,Raw,B
1,Pavel Balážik,Open,Slovakia,51.9,,,,,,,,,,,145,155,160,160,-162.5,160,52,M,,1979,Raw,D
1,Vladlen Astaptsev,Masters 45-49,Finland,74,,,,,,,,,,,160,180,185,185,,185,75,M,,1965,Raw,D
1,Tomi Kuivalainen,Juniors 20-23,Finland,80.5,,,,,,,,,,,255,262.5,267.5,267.5,,267.5,82.5,M,,1992,Raw,D
1,Petri Säkkinen,Open,Finland,82.2,,,,,,,,,,,265,280,291,291,,291,82.5,M,,1982,Raw,D
1,Severi Salonen,Teen 16-17,Finland,88.9,,,,,,,,,,,160,175,182.5,182.5,185,182.5,90,M,,1997,Raw,D
1,Janne Rissanen,Open,Finland,88.5,,,,,,,,,,,240,260,280,280,,280,90,M,,1985,Raw,D
1,Erkki Hollo,Masters 45-49,Finland,88.2,,,,,,,,,,,210,215,220,220,,220,90,M,,1967,Raw,D
1,Petri Kalevi Mäkinen,Masters 50-54,Finland,88.7,,,,,,,,,,,140,155,160,160,,160,90,M,,1963,Raw,D
1,Seppo Ojala,Masters 60-64,Finland,86.9,,,,,,,,,,,-175,185,200,200,202.2,200,90,M,,1952,Raw,D
1,Zurab Tavartkiladze,Open,Georgia,95.1,,,,,,,,,,,270,290,-308,290,,290,100,M,,1987,Raw,D
2,Mikko Mäntymäki,Open,Finland,98.6,,,,,,,,,,,220,240,250,250,255,250,100,M,,1971,Raw,D
1,Mikko Mäntymäki,Masters 40-44,Finland,98.6,,,,,,,,,,,220,240,250,250,255,250,100,M,,1971,Raw,D
1,Pasi Jokela,Masters 50-54,Finland,98.6,,,,,,,,,,,200,220,,220,,220,100,M,,1962,Raw,D
1,Michael Kidd,Masters 55-59,USA,98,,,,,,,,,,,32.5,,,32.5,,32.5,100,M,,1955,Raw,D
1,Harri Peltomaa,Open,Finland,106.9,,,,,,,,,,,310,330,342.5,342.5,,342.5,110,M,,1983,Raw,D
1,Ivars Cīrulis,Open,Latvia,106.9,,,,,,,,,,,300,325,340,340,,340,110,M,,1979,Raw,D
1,Paavo Eskelinen,Masters 60-64,Finland,105.4,,,,,,,,,,,245,260,-270,260,,260,110,M,,1949,Raw,D
1,Hans Rosen Göran,Masters 45-49,Sweden,116.3,,,,,,,,,,,280,290,-300,290,,290,125,M,,1965,Raw,D
1,Petri Billy Haavisto,Masters 45-49,Finland,119.9,,,,,,,,,,,260,,,260,,260,125,M,,1965,Raw,D
1,Polis Dainis,Masters 50-54,Latvia,115.2,,,,,,,,,,,250,270,-280,270,,270,125,M,,1959,Raw,D
1,Giorgi Davitashvili,Submasters 35-39,Georgia,121,,,,,,,,,,,200,230,250.5,250.5,,250.5,125,M,,1978,Raw,D
1,Damir Krunic,Open,Serbia,135.9,,,,,,,,,,,300,330,-350,330,,330,140,M,,1975,Raw,D
1,Damir Krunic,Submasters 35-39,Serbia,135.9,,,,,,,,,,,300,330,-350,330,,330,140,M,,1975,Raw,D
1,Maiju Hilander,Masters 55-59,Finland,67.5,,,,,,,,,,,100,120,-130,120,,120,67.5,F,,1957,Raw,D
1,Malin Sundberg,Juniors 20-23,Sweden,77.5,,,,,,,,,,,110,120,130,130,,130,82.5,F,,1990,Raw,D
1,Anna-Maria Rosén,Open,Sweden,88.6,,,,,,,,,,,195,205,210,210,,210,90,F,,1972,Raw,D
