Division,WeightClassKg,Place,Name,Team,BodyweightKg,Best3SquatKg,Best3BenchKg,Best3DeadliftKg,TotalKg,Equipment,Event,Sex
Girls,44.23,1,Jaysa Crochet,Buna,42.37,77.11,31.75,83.91,192.78,Single-ply,SBD,F
Girls,44.23,2,Danielle Puentes,Louise,43.41,58.97,34.02,90.72,183.7,Single-ply,SBD,F
Girls,44.23,3,Marissa Linares,Danbury,39.42,63.5,34.02,65.77,163.29,Single-ply,SBD,F
Girls,44.23,DQ,Claudia Ayala,Ganado,42.82,,,,,Single-ply,SBD,F
Girls,44.23,DQ,Jessi Choate,Winnie East Chambers,41.64,,,,,Single-ply,SBD,F
Girls,44.23,DQ,Avery Moresco,Hitchcock,37.51,,,,,Single-ply,SBD,F
Girls,47.85,1,Kamryn Johnson,Edna,46.08,92.99,34.02,108.86,235.87,Single-ply,SBD,F
Girls,47.85,2,Marian Gomez,Palacios,45.36,77.11,38.56,88.45,204.12,Single-ply,SBD,F
Girls,47.85,3,Samantha Cazares,Vanderbilt Industrial,47.72,86.18,29.48,88.45,204.12,Single-ply,SBD,F
Girls,47.85,4,Andrea Alvarez,Winnie East Chambers,47.85,74.84,36.29,68.04,179.17,Single-ply,SBD,F
Girls,47.85,5,Alexandra Bennett,Hardin,45.81,27.22,24.95,56.7,108.86,Single-ply,SBD,F
Girls,47.85,DQ,Maria Alvarez,Winnie East Chambers,44.41,86.18,,,,Single-ply,SBD,F
Girls,47.85,DQ,Destiny Roth,Hardin,47.63,,,,,Single-ply,SBD,F
Girls,51.94,1,Kendra Fisher,Buna,50.85,122.47,56.7,124.74,303.91,Single-ply,SBD,F
Girls,51.94,2,Brianna Morelion,Buna,51.12,106.59,56.7,122.47,285.76,Single-ply,SBD,F
Girls,51.94,3,Kelsey Lopez,Van Vleck,51.3,108.86,45.36,106.59,260.82,Single-ply,SBD,F
Girls,51.94,4,Corey Wilkes,Van Vleck,50.71,99.79,47.63,106.59,254.01,Single-ply,SBD,F
Girls,51.94,5,Latashia Lyons,Anahuac,51.85,97.52,36.29,111.13,244.94,Single-ply,SBD,F
Girls,51.94,6,Cheyenne Bland,Hardin,50.76,74.84,24.95,83.91,183.7,Single-ply,SBD,F
Girls,51.94,7,Marissa Trousdale,Hull-Daisetta,49.58,47.63,24.95,88.45,161.03,Single-ply,SBD,F
Girls,51.94,8,Chelsea Shipp,High Island,51.66,52.16,29.48,79.38,161.03,Single-ply,SBD,F
Girls,51.94,DQ,Raelyn Swan,Hitchcock,50.67,,,,,Single-ply,SBD,F
Girls,51.94,DQ,Lisset Cuellar,Winnie East Chambers,51.57,,,,,Single-ply,SBD,F
Girls,51.94,DQ,Dakota Reckaway,Kirbyville,51.71,,,,,Single-ply,SBD,F
Girls,51.94,DQ,Jasmine Lee,Hull-Daisetta,51.71,,,,,Single-ply,SBD,F
Girls,51.94,DQ,Ashlee Brinkley,Anahuac,51.85,,,,,Single-ply,SBD,F
Girls,56.02,1,Shelbea Permenter,Buna,55.61,120.2,52.16,122.47,294.84,Single-ply,SBD,F
Girls,56.02,2,Kasi Bethke,Vanderbilt Industrial,55.66,117.93,54.43,111.13,283.5,Single-ply,SBD,F
Girls,56.02,3,Taylor Kendrick,Hitchcock,53.61,115.67,40.82,108.86,265.35,Single-ply,SBD,F
Girls,56.02,4,Sissy Martinez,Palacios,54.75,102.06,40.82,104.33,247.21,Single-ply,SBD,F
Girls,56.02,5,Victoria Jordan,Saratoga West Hardin,54.79,92.99,47.63,106.59,247.21,Single-ply,SBD,F
Girls,56.02,6,Jade Butchee,Buna,54.3,90.72,45.36,108.86,244.94,Single-ply,SBD,F
Girls,56.02,7,Katherine Franklin,Buna,55.07,95.25,45.36,99.79,240.4,Single-ply,SBD,F
Girls,56.02,8,Alexis Alfaro #1,Ganado,55.52,92.99,43.09,99.79,235.87,Single-ply,SBD,F
Girls,56.02,DQ,Mariah Martinez #1,Vanderbilt Industrial,55.88,111.13,,,,Single-ply,SBD,F
Girls,56.02,DQ,Lesli Alvarez,Winnie East Chambers,53.84,90.72,,,,Single-ply,SBD,F
Girls,60.1,1,Hannah Daniel,Winnie East Chambers,58.6,124.74,56.7,124.74,306.17,Single-ply,SBD,F
Girls,60.1,2,Nellie Perry,Palacios,57.74,120.2,63.5,117.93,301.64,Single-ply,SBD,F
Girls,60.1,3,Alexis Mojica,Ganado,57.15,115.67,45.36,136.08,297.1,Single-ply,SBD,F
Girls,60.1,4,Kelli Cochrell,Saratoga West Hardin,58.79,120.2,52.16,120.2,292.57,Single-ply,SBD,F
Girls,60.1,5,Justice Brooks,Van Vleck,58.11,97.52,56.7,129.27,283.5,Single-ply,SBD,F
Girls,60.1,6,Roni Fleming,Hitchcock,58.56,95.25,45.36,106.59,247.21,Single-ply,SBD,F
Girls,60.1,7,Maci Allee,Kirbyville,59.96,97.52,40.82,108.86,247.21,Single-ply,SBD,F
Girls,60.1,8,Kacey Anthony,Buna,59.83,79.38,52.16,88.45,219.99,Single-ply,SBD,F
Girls,60.1,DQ,Darla Spencer,Winnie East Chambers,59.24,,,,,Single-ply,SBD,F
Girls,60.1,DQ,Annabelle Hanka,Boling,59.87,,,,,Single-ply,SBD,F
Girls,60.1,DQ,Daelyn Frank,Hitchcock,59.96,,,,,Single-ply,SBD,F
Girls,67.36,1,Dolly Ortiz,Edna,66.72,149.69,74.84,167.83,392.36,Single-ply,SBD,F
Girls,67.36,2,Haley Wood,Vanderbilt Industrial,66.27,122.47,61.23,138.35,322.05,Single-ply,SBD,F
Girls,67.36,3,Cami Hill,Boling,63.32,124.74,63.5,131.54,319.78,Single-ply,SBD,F
Girls,67.36,4,Brittany Anderson,Buna,66.32,106.59,61.23,131.54,299.37,Single-ply,SBD,F
Girls,67.36,5,Naomi Simmons,Boling,63.41,102.06,43.09,151.95,297.1,Single-ply,SBD,F
Girls,67.36,6,Lauren Buffington,Warren,63.41,113.4,49.9,120.2,283.5,Single-ply,SBD,F
Girls,67.36,7,Kaitlyn Coleman,Edna,66.72,99.79,43.09,111.13,254.01,Single-ply,SBD,F
Girls,67.36,8,Delia Lopez,Palacios,65.59,79.38,54.43,113.4,247.21,Single-ply,SBD,F
Girls,67.36,9,Samantha Gardner,Corrigan-Camden,66.68,95.25,54.43,90.72,240.4,Single-ply,SBD,F
Girls,67.36,DQ,Symmone Dobbins,Hitchcock,67.18,,,,,Single-ply,SBD,F
Girls,67.36,DQ,Kimberly Simmons,Hitchcock,67.13,,,,,Single-ply,SBD,F
Girls,75.07,1,Karina Ramon,Palacios,67.49,138.35,77.11,131.54,347,Single-ply,SBD,F
Girls,75.07,2,Brenttany Birdow,Hitchcock,71.26,136.08,49.9,149.69,335.66,Single-ply,SBD,F
Girls,75.07,3,Nicki Le,Palacios,67.4,108.86,63.5,106.59,278.96,Single-ply,SBD,F
Girls,75.07,4,Rachel Hargraves,Anahuac,69.85,102.06,47.63,111.13,260.82,Single-ply,SBD,F
Girls,75.07,5,Kiara Singleton,Corrigan-Camden,69.13,68.04,45.36,124.74,238.14,Single-ply,SBD,F
Girls,75.07,6,Abbie Holder,Louise,71.08,97.52,52.16,86.18,235.87,Single-ply,SBD,F
Girls,75.07,7,Valerie Cardenas,Louise,71.49,68.04,43.09,102.06,213.19,Single-ply,SBD,F
Girls,75.07,DQ,Macey Watson,Van Vleck,74.16,,,,,Single-ply,SBD,F
Girls,75.07,DQ,Savanah Benevidez,El Maton Tidehaven,71.21,,,,,Single-ply,SBD,F
Girls,82.33,1,Desiree Hart,Edna,75.52,122.47,58.97,127.01,308.44,Single-ply,SBD,F
Girls,82.33,2,Kiarra Williams,Hitchcock,75.61,122.47,63.5,113.4,299.37,Single-ply,SBD,F
Girls,82.33,3,Brookelyn Bivens,Buna,75.84,106.59,61.23,90.72,258.55,Single-ply,SBD,F
Girls,82.33,4,Rebecca McGarity,Kountze,80.47,90.72,47.63,111.13,249.48,Single-ply,SBD,F
Girls,82.33,5,Cindy Campbell,High Island,75.52,68.04,36.29,97.52,201.85,Single-ply,SBD,F
Girls,82.33,6,Julia Garcia,Hardin,75.48,72.57,34.02,90.72,197.31,Single-ply,SBD,F
Girls,82.33,DQ,Kantaja Sells,Woodville,76.66,,,,,Single-ply,SBD,F
Girls,82.33,DQ,LesLee Harmon,Winnie East Chambers,79.2,,,,,Single-ply,SBD,F
Girls,82.33,DQ,Chelsey Castor,Hardin,82.1,,,,,Single-ply,SBD,F
Girls,82.33,DQ,Sarah Berry,Deweyville,82.1,,,,,Single-ply,SBD,F
Girls,90.04,1,Claire Winkenwerder,Boling,85.41,111.13,61.23,136.08,308.44,Single-ply,SBD,F
Girls,90.04,2,Elizabeth Hoover,Hardin,84.37,131.54,47.63,117.93,297.1,Single-ply,SBD,F
Girls,90.04,3,Meah Herman,Hull-Daisetta,88.72,124.74,68.04,102.06,294.84,Single-ply,SBD,F
Girls,90.04,4,Antoinette Burrell,Woodville,87,129.27,61.23,102.06,292.57,Single-ply,SBD,F
Girls,90.04,5,Ashley Rios,El Maton Tidehaven,85.09,108.86,49.9,111.13,269.89,Single-ply,SBD,F
Girls,90.04,6,Kaitlin Leader,Hardin,85.59,102.06,49.9,117.93,269.89,Single-ply,SBD,F
Girls,90.04,7,Cerenity Venglar,Vanderbilt Industrial,87.18,90.72,63.5,115.67,269.89,Single-ply,SBD,F
Girls,90.04,8,Ty Bergeron,Anahuac,86.14,95.25,47.63,102.06,244.94,Single-ply,SBD,F
Girls,90.04,9,Haley Little,El Maton Tidehaven,86.91,97.52,43.09,95.25,235.87,Single-ply,SBD,F
Girls,90.04,DQ,Hannah Marek,Edna,89.81,,,,,Single-ply,SBD,F
Girls,90.04,DQ,Kaylee Grissom,Corrigan-Camden,89.81,,,,,Single-ply,SBD,F
Girls,100.02,1,Laura Garcia,Edna,91.72,145.15,58.97,147.42,351.53,Single-ply,SBD,F
Girls,100.02,2,Sara Domicelli,Ganado,93.58,131.54,77.11,142.88,351.53,Single-ply,SBD,F
Girls,100.02,3,Rielly Long Causey,Buna,98.16,142.88,72.57,117.93,333.39,Single-ply,SBD,F
Girls,100.02,4,Ashley Trammell,Danbury,99.88,117.93,65.77,129.27,312.98,Single-ply,SBD,F
Girls,100.02,5,Kaley Terracina,Buna,95.07,108.86,72.57,104.33,285.76,Single-ply,SBD,F
Girls,100.02,6,Bria Kirkpatrick,Warren,97.02,115.67,45.36,124.74,285.76,Single-ply,SBD,F
Girls,100.02,DQ,Mattie Harmon,Winnie East Chambers,95.57,,,,,Single-ply,SBD,F
Girls,100.02,DQ,Tiffany Goranson,Edna,94.35,,,,,Single-ply,SBD,F
Girls,100.02,DQ,Allagra Young,Kirbyville,94.48,149.69,,,,Single-ply,SBD,F
Girls,100.02,DQ,Kelly Murphy,High Island,99.79,,,,,Single-ply,SBD,F
Girls,100.02,DQ,Kali Davie,Hardin,99.11,140.61,54.43,,,Single-ply,SBD,F
Girls,100.02+,1,Mikala James,Edna,120.11,185.97,74.84,142.88,403.7,Single-ply,SBD,F
Girls,100.02+,2,Shermeka Thompson,Edna,104.33,156.49,72.57,170.1,399.16,Single-ply,SBD,F
Girls,100.02+,3,Bobby Denard,Buna,115.35,165.56,106.59,120.2,392.36,Single-ply,SBD,F
Girls,100.02+,4,Chelsey Fajkus,Hardin,108.09,122.47,56.7,111.13,290.3,Single-ply,SBD,F
Girls,100.02+,5,Jasmine Robinson,Boling,107.18,102.06,56.7,104.33,263.08,Single-ply,SBD,F
Girls,100.02+,6,Asia Snow,High Island,124.6,90.72,45.36,102.06,238.14,Single-ply,SBD,F
Girls,100.02+,DQ,Allie Arrington,Boling,205.66,,,,,Single-ply,SBD,F
Girls,100.02+,DQ,Linda Cruz,High Island,107.68,,,,,Single-ply,SBD,F
Girls,100.02+,DQ,Linda Cruz,Deweyville,100.24,,,,,Single-ply,SBD,F
