Division,WeightClassKg,Place,Name,Team,BodyweightKg,Best3SquatKg,Best3BenchKg,Best3DeadliftKg,TotalKg,Equipment,Event,Sex,BirthDate
Boys,51.71,1,Yancy Perkins,Comanche,51.26,97.52,54.43,127.01,278.96,Single-ply,SBD,M,
Boys,51.71,2,Aiden Baker,Hamilton,45.99,74.84,45.36,86.18,206.38,Single-ply,SBD,M,
Boys,51.71,3,Brent Wade,Early,44.63,83.91,47.63,72.57,204.12,Single-ply,SBD,M,
Boys,55.79,1,Hanner Campbell,Early,55.34,154.22,81.65,163.29,399.16,Single-ply,SBD,M,
Boys,55.79,2,Ricky Lopez,Dublin,55.25,142.88,86.18,161.03,390.09,Single-ply,SBD,M,
Boys,55.79,3,Miguel Gallegos,Dublin,53.8,124.74,81.65,151.95,358.34,Single-ply,SBD,M,
Boys,55.79,4,Jason Rainbolt,Hamilton,54.16,83.91,52.16,104.33,240.4,Single-ply,SBD,M,
Boys,59.87,1,Canaan Charleston,Clyde,59.87,197.31,124.74,185.97,508.02,Single-ply,SBD,M,
Boys,59.87,2,Seth Clemmons,Comanche,58.69,117.93,61.23,131.54,310.71,Single-ply,SBD,M,
Boys,59.87,3,Micheal Morales,Early,58.33,99.79,54.43,90.72,244.94,Single-ply,SBD,M,
Boys,67.13,1,Aaron Suniga,Comanche,62.78,170.1,99.79,172.37,442.25,Single-ply,SBD,M,
Boys,67.13,2,Davin Crouch,Hamilton,66.32,142.88,83.91,149.69,376.48,Single-ply,SBD,M,
Boys,67.13,3,Alex Thiele,Hamilton,66.95,136.08,74.84,163.29,374.21,Single-ply,SBD,M,
Boys,67.13,4,Ben Bruce,Hamilton,62.69,124.74,72.57,142.88,340.19,Single-ply,SBD,M,
Boys,74.84,1,Jayden Fuentes,Ballinger,73.3,170.1,88.45,181.44,439.98,Single-ply,SBD,M,
Boys,74.84,2,Alan Garza,Comanche,68.86,145.15,83.91,151.95,381.02,Single-ply,SBD,M,
Boys,74.84,3,Cade Bauman,Comanche,71.3,142.88,92.99,145.15,381.02,Single-ply,SBD,M,
Boys,74.84,4,Austin Baugh,Dublin,68.86,138.35,79.38,154.22,371.95,Single-ply,SBD,M,
Boys,74.84,5,Jessy Anzua,Goldthwaite,73.94,147.42,83.91,136.08,367.41,Single-ply,SBD,M,
Boys,74.84,6,Slade Sutherland,Goldthwaite,74.57,120.2,79.38,142.88,342.46,Single-ply,SBD,M,
Boys,74.84,7,Eddie Poen,Clyde,74.84,108.86,90.72,142.88,342.46,Single-ply,SBD,M,
Boys,74.84,8,Jacob Young #3,Hamilton,71.58,111.13,56.7,124.74,292.57,Single-ply,SBD,M,
Boys,74.84,9,Baylen Gutierrez,Comanche,69.67,104.33,61.23,115.67,281.23,Single-ply,SBD,M,
Boys,74.84,DQ,CJ DeLeon,Hamilton,74.84,115.67,74.84,,,Single-ply,SBD,M,
Boys,82.1,1,Richard Hoffman,Clyde,78.74,206.38,111.13,188.24,505.76,Single-ply,SBD,M,
Boys,82.1,2,Fabian Rubio,Ballinger,82.1,188.24,111.13,188.24,487.61,Single-ply,SBD,M,
Boys,82.1,3,Daniel Medina,Ballinger,81.19,176.9,115.67,183.7,476.27,Single-ply,SBD,M,
Boys,82.1,4,Luis Ordoñez,Dublin,77.75,161.03,106.59,197.31,464.93,Single-ply,SBD,M,
Boys,82.1,5,Aaron Anzua,Goldthwaite,82.01,145.15,104.33,158.76,408.23,Single-ply,SBD,M,
Boys,82.1,6,Casey Mosley,Early,78.2,145.15,108.86,127.01,381.02,Single-ply,SBD,M,
Boys,82.1,7,Jose Valdez,Goldthwaite,77.47,147.42,83.91,147.42,378.75,Single-ply,SBD,M,
Boys,82.1,8,Mitchell Hopper,Goldthwaite,81.47,142.88,86.18,145.15,374.21,Single-ply,SBD,M,
Boys,82.1,9,Nathaniel Rangel,Comanche,81.56,133.81,83.91,136.08,353.8,Single-ply,SBD,M,
Boys,82.1,DQ,Caleb Powell,Clyde,81.47,131.54,,138.35,,Single-ply,SBD,M,
Boys,89.81,1,Donovan Gomez,Clyde,88.45,244.94,154.22,244.94,644.1,Single-ply,SBD,M,
Boys,89.81,2,Johnny Jurado,Dublin,88.36,231.33,127.01,229.06,587.4,Single-ply,SBD,M,
Boys,89.81,3,Diego Crader,Early,83.19,188.24,145.15,176.9,510.29,Single-ply,SBD,M,
Boys,89.81,4,Aries Vanderlaan,Goldthwaite,89.81,170.1,113.4,181.44,464.93,Single-ply,SBD,M,
Boys,89.81,5,Landon McIntire,Ballinger,85.91,174.63,108.86,176.9,460.4,Single-ply,SBD,M,
Boys,89.81,6,Miguel Leos,Comanche,89.63,163.29,102.06,174.63,439.98,Single-ply,SBD,M,
Boys,89.81,7,Saul Vaquera,Goldthwaite,86.18,138.35,102.06,149.69,390.09,Single-ply,SBD,M,
Boys,89.81,8,Kody Roberts,Goldthwaite,89.81,138.35,90.72,142.88,371.95,Single-ply,SBD,M,
Boys,89.81,9,Chris Fernandez,Early,85.09,147.42,95.25,124.74,367.41,Single-ply,SBD,M,
Boys,89.81,DQ,Corrin Hill,Comanche,85.28,183.7,,,,Single-ply,SBD,M,
Boys,99.79,1,Phillip McDowell,Clyde,95.53,244.94,151.95,229.06,625.96,Single-ply,SBD,M,
Boys,99.79,2,Adam Keidl,Clyde,95.35,199.58,131.54,215.46,546.58,Single-ply,SBD,M,
Boys,99.79,3,Xavier Herrera,Comanche,93.98,204.12,113.4,188.24,505.76,Single-ply,SBD,M,
Boys,99.79,4,Jon Fish,Clyde,95.89,167.83,120.2,185.97,474,Single-ply,SBD,M,
Boys,99.79,5,Ron Ramirez,Hamilton,98.25,136.08,74.84,149.69,360.61,Single-ply,SBD,M,
Boys,109.77,1,Austin Adkins,Baird,107.32,235.87,156.49,249.48,641.83,Single-ply,SBD,M,
Boys,109.77,2,Michael Stanley #1,Dublin,105.87,197.31,127.01,195.04,519.36,Single-ply,SBD,M,
Boys,109.77,3,Tyler Morrow,Dublin,103.96,190.51,111.13,215.46,517.1,Single-ply,SBD,M,
Boys,109.77,4,Bernie Ortega,Dublin,102.24,179.17,127.01,206.38,512.56,Single-ply,SBD,M,
Boys,124.74,1,Victor Juarez,Dublin,121.47,192.78,122.47,213.19,528.44,Single-ply,SBD,M,
Boys,124.74,2,Fischer Fulton,Early,113.31,174.63,124.74,136.08,435.45,Single-ply,SBD,M,
Boys,124.74,3,Adam McCoy,Goldthwaite,111.67,140.61,86.18,149.69,376.48,Single-ply,SBD,M,
Boys,124.74+,1,Jeron Conine,Comanche,128.91,285.76,172.37,226.8,684.92,Single-ply,SBD,M,
Boys,124.74+,2,Stedham Buchanan,Clyde,126.01,226.8,167.83,229.06,623.69,Single-ply,SBD,M,
Boys,124.74+,3,Stran Burrow,Dublin,133.63,201.85,156.49,215.46,573.79,Single-ply,SBD,M,
Boys,124.74+,4,Cameron Price,Clyde,126.37,183.7,111.13,192.78,487.61,Single-ply,SBD,M,
Boys,124.74+,5,Wesley Schowengerdt,Clyde,129.36,172.37,111.13,167.83,451.32,Single-ply,SBD,M,
Boys,124.74+,6,Jacob Valdez,Goldthwaite,128.19,142.88,77.11,156.49,376.48,Single-ply,SBD,M,
Boys,124.74+,DQ,Josh Ward,Baird,164.84,215.46,131.54,,,Single-ply,SBD,M,
