Division,WeightClassKg,Place,Name,Team,BodyweightKg,Best3SquatKg,Best3BenchKg,Best3DeadliftKg,TotalKg,Equipment,Event,Sex
Boys,51.71,1,Taylor Nobles,Yoakum,49.26,113.4,49.9,122.47,285.76,Single-ply,SBD,M
Boys,51.71,2,Dylan Torres,Runge,51.07,104.33,58.97,122.47,285.76,Single-ply,SBD,M
Boys,51.71,3,Buster Dodge,Refugio,47.26,83.91,45.36,95.25,224.53,Single-ply,SBD,M
Boys,51.71,DQ,Chris Jones #14,Hallettsville,47.99,68.04,,,,Single-ply,SBD,M
Boys,51.71,DQ,Josh Vela,Stockdale,51.71,,,,,Single-ply,SBD,M
Boys,55.79,1,Darion McMahan,Stockdale,55.34,145.15,77.11,145.15,367.41,Single-ply,SBD,M
Boys,55.79,2,Connor Cross,Cuero,54.88,136.08,61.23,124.74,322.05,Single-ply,SBD,M
Boys,59.87,3,Travis Campbell,Hallettsville,55.97,99.79,70.31,136.08,306.17,Single-ply,SBD,M
Boys,55.79,4,Adam Zamarripas,Stockdale,55.25,115.67,54.43,129.27,299.37,Single-ply,SBD,M
Boys,55.79,5,Trevor Moczygemba,Poth,52.44,88.45,45.36,99.79,233.6,Single-ply,SBD,M
Boys,59.87,1,Chase Dolezal,Hallettsville,59.87,161.03,90.72,165.56,417.3,Single-ply,SBD,M
Boys,59.87,2,Peter Martinez,Yorktown,58.97,129.27,90.72,172.37,392.36,Single-ply,SBD,M
Boys,67.13,3,Carbe Seaman,Victoria St. Joseph,59.96,117.93,102.06,154.22,374.21,Single-ply,SBD,M
Boys,59.87,4,Aaron Prasek,Hallettsville,59.87,113.4,77.11,161.03,351.53,Single-ply,SBD,M
Boys,59.87,5,Lucas Alvear,Runge,58.97,124.74,68.04,142.88,335.66,Single-ply,SBD,M
Boys,67.13,6,Brandon Thompson,Refugio,60.06,124.74,65.77,142.88,333.39,Single-ply,SBD,M
Boys,59.87,7,Glenn Wineman,Refugio,59.33,142.88,54.43,131.54,328.85,Single-ply,SBD,M
Boys,59.87,8,Gabriel Casares,Gonzales,58.69,120.2,70.31,127.01,317.51,Single-ply,SBD,M
Boys,59.87,9,Kyle Pruski,Poth,58.74,124.74,52.16,115.67,292.57,Single-ply,SBD,M
Boys,59.87,DQ,Miguel Hernandez,Nixon Smiley,56.88,113.4,,,,Single-ply,SBD,M
Boys,59.87,DQ,Baltizar Tovar,Nixon Smiley,59.33,111.13,,,,Single-ply,SBD,M
Boys,67.13,1,Jay Garza,Poth,65.41,190.51,127.01,199.58,517.1,Single-ply,SBD,M
Boys,67.13,2,Gino Dodge,Refugio,65.14,190.51,106.59,183.7,480.81,Single-ply,SBD,M
Boys,67.13,3,Ryan Berkovsky,Yoakum,63.78,167.83,97.52,192.78,458.13,Single-ply,SBD,M
Boys,67.13,4,Jacob Tumlinson,Victoria St. Joseph,66.13,163.29,102.06,174.63,439.98,Single-ply,SBD,M
Boys,67.13,5,Koby Caka,Yoakum,65.68,154.22,83.91,161.03,399.16,Single-ply,SBD,M
Boys,67.13,6,Carlos Rodriguez #4,Hallettsville,67.13,136.08,90.72,138.35,365.14,Single-ply,SBD,M
Boys,67.13,7,Blake McCracken,Yoakum,62.78,142.88,65.77,147.42,356.07,Single-ply,SBD,M
Boys,67.13,8,Patrick Jones,Runge,65.41,99.79,68.04,154.22,322.05,Single-ply,SBD,M
Boys,67.13,9,Chris Shelton,Gonzales,66.68,92.99,63.5,158.76,315.25,Single-ply,SBD,M
Boys,67.13,10,Perry Bone,Stockdale,63.96,113.4,63.5,113.4,290.3,Single-ply,SBD,M
Boys,67.13,11,Justin Vazquez,Runge,62.51,88.45,58.97,127.01,274.42,Single-ply,SBD,M
Boys,67.13,DQ,Travis Schuester,Cuero,66.59,122.47,,,,Single-ply,SBD,M
Boys,74.84,1,Christian Nelson,Poth,73.12,192.78,117.93,197.31,508.02,Single-ply,SBD,M
Boys,74.84,2,Andrew Jimenez,Yoakum,74.12,192.78,104.33,181.44,478.54,Single-ply,SBD,M
Boys,74.84,3,Hunter Noack,Gonzales,74.3,174.63,92.99,190.51,458.13,Single-ply,SBD,M
Boys,74.84,4,Cole Stremmel,Yorktown,73.48,172.37,108.86,154.22,435.45,Single-ply,SBD,M
Boys,74.84,5,Colton Kalmus,Victoria St. Joseph,74.75,136.08,88.45,204.12,428.64,Single-ply,SBD,M
Boys,74.84,6,John Botello,Gonzales,68.95,145.15,92.99,163.29,401.43,Single-ply,SBD,M
Boys,74.84,7,Hunter Pierdolla,Stockdale,74.75,147.42,92.99,161.03,401.43,Single-ply,SBD,M
Boys,74.84,8,Daniel Loveday,Refugio,68.04,147.42,95.25,154.22,396.89,Single-ply,SBD,M
Boys,74.84,9,Mark Saldana,Nixon Smiley,70.85,127.01,83.91,176.9,387.82,Single-ply,SBD,M
Boys,74.84,10,Jake Heryford,Refugio,69.76,142.88,92.99,142.88,378.75,Single-ply,SBD,M
Boys,74.84,11,Marcus Bryan,Runge,74.12,129.27,77.11,142.88,349.27,Single-ply,SBD,M
Boys,74.84,12,Lane Strieber,Yorktown,70.31,129.27,74.84,142.88,347,Single-ply,SBD,M
Boys,74.84,13,Derek Franke,Yorktown,73.03,122.47,72.57,145.15,340.19,Single-ply,SBD,M
Boys,82.1,14,Nathaniel Alvarez,Kenedy,74.93,115.67,83.91,129.27,328.85,Single-ply,SBD,M
Boys,74.84,15,Cameron Nicholson,Hallettsville,71.03,113.4,77.11,131.54,322.05,Single-ply,SBD,M
Boys,74.84,16,Andrew Garcia,Refugio,68.95,142.88,74.84,102.06,319.78,Single-ply,SBD,M
Boys,74.84,17,Quest Garza,Stockdale,67.59,115.67,61.23,136.08,312.98,Single-ply,SBD,M
Boys,74.84,18,Tanner Maxwell,Stockdale,67.68,102.06,56.7,142.88,301.64,Single-ply,SBD,M
Boys,74.84,19,Michael Coffman,Yorktown,72.57,102.06,61.23,131.54,294.84,Single-ply,SBD,M
Boys,74.84,DQ,Paul Saldana,Nixon Smiley,74.12,163.29,,,,Single-ply,SBD,M
Boys,82.1,1,Landon Lock,Gonzales,80.74,231.33,113.4,244.94,589.67,Single-ply,SBD,M
Boys,82.1,2,Ian Luechemeyer,Cuero,77.66,158.76,122.47,204.12,485.34,Single-ply,SBD,M
Boys,82.1,3,Cody Valle,Victoria St. Joseph,78.65,199.58,97.52,179.17,476.27,Single-ply,SBD,M
Boys,82.1,4,Colton Jacob,Cuero,80.38,172.37,111.13,181.44,464.93,Single-ply,SBD,M
Boys,82.1,5,Chase Wiatrek,Poth,81.28,176.9,92.99,185.97,455.86,Single-ply,SBD,M
Boys,82.1,6,Adrian Molina,Gonzales,80.92,167.83,111.13,165.56,444.52,Single-ply,SBD,M
Boys,82.1,7,Jake Henderson,Refugio,79.83,167.83,92.99,158.76,419.57,Single-ply,SBD,M
Boys,82.1,8,Daniel Sánchez,Gonzales,80.92,124.74,74.84,142.88,342.46,Single-ply,SBD,M
Boys,82.1,9,Josh Guerra,Victoria St. Joseph,78.29,133.81,70.31,136.08,340.19,Single-ply,SBD,M
Boys,82.1,10,Trevor Baumann,Stockdale,78.02,124.74,63.5,142.88,331.12,Single-ply,SBD,M
Boys,82.1,DQ,Michael Martinez,Nixon Smiley,77.47,142.88,,,,Single-ply,SBD,M
Boys,82.1,DQ,Chad Brockman,Victoria St. Joseph,77.29,149.69,,,,Single-ply,SBD,M
Boys,89.81,1,Joel Campos,Gonzales,86.64,204.12,142.88,195.04,542.04,Single-ply,SBD,M
Boys,89.81,2,Chris Brockman,Victoria St. Joseph,84.91,208.65,138.35,190.51,537.51,Single-ply,SBD,M
Boys,89.81,3,Maison Rickman,Cuero,85.55,192.78,136.08,204.12,532.97,Single-ply,SBD,M
Boys,89.81,4,Jason Castillo,Cuero,87.63,190.51,122.47,192.78,505.76,Single-ply,SBD,M
Boys,89.81,5,Roman Garcia,Kenedy,84.28,183.7,124.74,185.97,494.42,Single-ply,SBD,M
Boys,99.79,6,Kolton Kilgore,Victoria St. Joseph,89.9,190.51,108.86,185.97,485.34,Single-ply,SBD,M
Boys,89.81,7,Alex Valdez,Refugio,85.46,167.83,102.06,172.37,442.25,Single-ply,SBD,M
Boys,89.81,8,John Wesley,Refugio,85.82,170.1,95.25,151.95,417.3,Single-ply,SBD,M
Boys,89.81,9,Roger Alvarez,Runge,84.82,117.93,83.91,156.49,358.34,Single-ply,SBD,M
Boys,89.81,10,Harold Rios,Runge,88.09,122.47,70.31,142.88,335.66,Single-ply,SBD,M
Boys,89.81,DQ,Patrick Washburn,Stockdale,87.18,142.88,97.52,,,Single-ply,SBD,M
Boys,99.79,1,Chance Dziuk,Poth,98.97,258.55,161.03,260.82,680.39,Single-ply,SBD,M
Boys,99.79,2,Logan Pickett,Cuero,97.52,235.87,142.88,213.19,591.94,Single-ply,SBD,M
Boys,99.79,3,Dylan Pekar,Yoakum,94.17,215.46,131.54,195.04,542.04,Single-ply,SBD,M
Boys,99.79,4,Seferino Vargas,Refugio,91.81,215.46,102.06,197.31,514.83,Single-ply,SBD,M
Boys,99.79,5,Korry Huddleston,Yorktown,90.26,181.44,122.47,195.04,498.95,Single-ply,SBD,M
Boys,99.79,6,Jesse Ramirez #6,Gonzales,98.52,154.22,79.38,149.69,383.29,Single-ply,SBD,M
Boys,99.79,7,Joey Wysatta,Hallettsville,98.97,136.08,83.91,136.08,356.07,Single-ply,SBD,M
Boys,109.77,1,Dillon Novosad,Yoakum,100.24,240.4,131.54,242.67,614.62,Single-ply,SBD,M
Boys,109.77,2,Fred Erskin,Gonzales,100.79,197.31,115.67,190.51,503.49,Single-ply,SBD,M
Boys,109.77,3,Jason Martinez,Gonzales,106.68,195.04,108.86,190.51,494.42,Single-ply,SBD,M
Boys,109.77,4,Brandon Thiry,Yoakum,102.78,176.9,106.59,183.7,467.2,Single-ply,SBD,M
Boys,109.77,5,Dillan Johnson,Yorktown,102.97,142.88,102.06,151.95,396.89,Single-ply,SBD,M
Boys,109.77,6,Colton Landgrebe,Runge,103.96,113.4,95.25,158.76,367.41,Single-ply,SBD,M
Boys,124.74,1,Dylan Klare,Refugio,113.22,272.16,174.63,226.8,673.58,Single-ply,SBD,M
Boys,124.74,2,Richie Guerrero,Yoakum,120.38,258.55,149.69,240.4,648.64,Single-ply,SBD,M
Boys,124.74,3,Dustin Catchings,Gonzales,114.58,226.8,136.08,254.01,616.89,Single-ply,SBD,M
Boys,124.74,4,Chris Caskey,Cuero,124.38,249.48,136.08,219.99,605.55,Single-ply,SBD,M
Boys,124.74,5,Wade Perry,Victoria St. Joseph,114.21,204.12,90.72,217.72,512.56,Single-ply,SBD,M
Boys,124.74,6,Justin Boening,Yoakum,115.21,204.12,108.86,195.04,508.02,Single-ply,SBD,M
Boys,124.74,7,Robby Medrano,Victoria St. Joseph,121.11,190.51,83.91,181.44,455.86,Single-ply,SBD,M
Boys,124.74,8,Charlie Hollaway,Victoria St. Joseph,114.21,167.83,92.99,158.76,419.57,Single-ply,SBD,M
Boys,124.74,9,Guadalupe Cabrera,Gonzales,118.12,163.29,102.06,147.42,412.77,Single-ply,SBD,M
Boys,124.74,10,Nathan Hernandez,Kenedy,115.67,136.08,74.84,133.81,344.73,Single-ply,SBD,M
Boys,124.74+,1,Tyler Egger,Yorktown,125.19,222.26,129.27,199.58,551.11,Single-ply,SBD,M
Boys,124.74+,2,Ruben Ortiz,Refugio,141.25,206.38,99.79,151.95,458.13,Single-ply,SBD,M
Boys,124.74+,3,Jaren Smith,Refugio,132.09,172.37,111.13,172.37,455.86,Single-ply,SBD,M
Boys,124.74+,4,Mathew San Miguel,Gonzales,144.7,158.76,104.33,151.95,415.04,Single-ply,SBD,M
Boys,124.74+,5,Randy Sierra,Cuero,126.1,219.99,92.99,,312.98,Single-ply,SB,M
