Division,WeightClassKg,Place,Name,Team,BodyweightKg,Best3SquatKg,Best3BenchKg,Best3DeadliftKg,TotalKg,Equipment,Event,Sex
Boys,51.71,1,Justin Lindsey,Kennedale,51.53,185.97,95.25,165.56,446.79,Single-ply,SBD,M
Boys,51.71,2,Joe Cullum,Kennedale,49.99,115.67,79.38,113.4,308.44,Single-ply,SBD,M
Boys,51.71,3,Noah Hernandez,Lake Worth,49.9,127.01,56.7,122.47,306.17,Single-ply,SBD,M
Boys,51.71,4,Landon Stewart,Aubrey,51.71,106.59,61.23,136.08,303.91,Single-ply,SBD,M
Boys,55.79,1,Jace Duncan,Mineral Wells,54.43,147.42,86.18,154.22,387.82,Single-ply,SBD,M
Boys,55.79,2,Angel Rico,Kennedale,53.98,136.08,72.57,147.42,356.07,Single-ply,SBD,M
Boys,59.87,1,Joseph Cates,Mansfield Summit,59.87,158.76,106.59,167.83,433.18,Single-ply,SBD,M
Boys,59.87,2,Luke Sciba,Aubrey,59.24,136.08,95.25,154.22,385.55,Single-ply,SBD,M
Boys,59.87,DQ,Enrique Colmonero,Pilot Point,59.42,149.69,63.5,,,Single-ply,SBD,M
Boys,67.13,1,Xavier Parker,Mineral Wells,61.42,181.44,86.18,165.56,433.18,Single-ply,SBD,M
Boys,67.13,2,Isaiah Rodriguez,Bridgeport,65.14,158.76,88.45,176.9,424.11,Single-ply,SBD,M
Boys,67.13,3,Jose de la Cerda,Bridgeport,64.41,151.95,88.45,165.56,405.97,Single-ply,SBD,M
Boys,67.13,4,Diego Martinez,Pilot Point,64.41,154.22,86.18,158.76,399.16,Single-ply,SBD,M
Boys,67.13,5,Jose Noyola,Aubrey,63.32,136.08,81.65,147.42,365.14,Single-ply,SBD,M
Boys,67.13,6,Brody Bounds,Aubrey,63.87,129.27,68.04,145.15,342.46,Single-ply,SBD,M
Boys,74.84,1,Joseph Quigley,Kennedale,73.57,192.78,90.72,174.63,458.13,Single-ply,SBD,M
Boys,74.84,2,Spencer Neumann,Aubrey,71.12,165.56,104.33,183.7,453.59,Single-ply,SBD,M
Boys,74.84,3,Will Dow,Aubrey,74.84,170.1,113.4,170.1,453.59,Single-ply,SBD,M
Boys,74.84,4,Jeff Wilbert,Aubrey,70.4,142.88,88.45,151.95,383.29,Single-ply,SBD,M
Boys,74.84,DQ,Jared Singleton,Mineral Wells,72.21,,,,,Single-ply,SBD,M
Boys,82.1,1,Pablo Vera,Aubrey,78.29,210.92,122.47,208.65,542.04,Single-ply,SBD,M
Boys,82.1,2,Colt Gallaway,Pilot Point,76.48,192.78,131.54,201.85,526.17,Single-ply,SBD,M
Boys,82.1,3,Christian Hand,Bridgeport,75.84,188.24,124.74,197.31,510.29,Single-ply,SBD,M
Boys,82.1,4,Ryan Goodwin,Mineral Wells,77.29,181.44,108.86,158.76,449.06,Single-ply,SBD,M
Boys,82.1,5,Innis Mendoza,Pilot Point,82.1,181.44,102.06,149.69,433.18,Single-ply,SBD,M
Boys,82.1,6,Keaton Robinson,Bridgeport,82.1,167.83,97.52,158.76,424.11,Single-ply,SBD,M
Boys,82.1,7,Bryson Britten,Aubrey,81.37,158.76,102.06,158.76,419.57,Single-ply,SBD,M
Boys,82.1,8,Jessie Sambrano,Lake Worth,78.02,158.76,79.38,163.29,401.43,Single-ply,SBD,M
Boys,82.1,9,Brandon Hall,Kennedale,79.11,120.2,81.65,142.88,344.73,Single-ply,SBD,M
Boys,89.81,1,Bridger Skogberg,Paradise,87.63,215.46,104.33,199.58,519.36,Single-ply,SBD,M
Boys,89.81,2,Kaleb Evans,Paradise,84.82,197.31,97.52,206.38,501.22,Single-ply,SBD,M
Boys,89.81,3,Desmond Mendoza,Kennedale,84.64,183.7,106.59,176.9,467.2,Single-ply,SBD,M
Boys,89.81,4,Andrew Alvarado,Aubrey,88.18,165.56,104.33,190.51,460.4,Single-ply,SBD,M
Boys,89.81,5,Kye Ranton,Aubrey,88.36,147.42,92.99,147.42,387.82,Single-ply,SBD,M
Boys,89.81,6,David Fielder,Kennedale,89.45,124.74,74.84,129.27,328.85,Single-ply,SBD,M
Boys,99.79,1,Ricardo Pena #2,Kennedale,95.62,265.35,151.95,206.38,623.69,Single-ply,SBD,M
Boys,99.79,2,Gonsalo Ibarra,Bridgeport,99.79,204.12,147.42,226.8,578.33,Single-ply,SBD,M
Boys,99.79,3,Cameron Hanna,Kennedale,98.34,229.06,113.4,233.6,576.06,Single-ply,SBD,M
Boys,99.79,4,Jason Escobedo,Lake Worth,98.52,213.19,136.08,201.85,551.11,Single-ply,SBD,M
Boys,99.79,5,Ezequiel Trejo,Pilot Point,92.53,210.92,104.33,199.58,514.83,Single-ply,SBD,M
Boys,99.79,6,Demetri Hendrick,Bridgeport,97.16,195.04,104.33,204.12,503.49,Single-ply,SBD,M
Boys,99.79,7,Jacob Slimp,Bridgeport,94.35,185.97,117.93,188.24,492.15,Single-ply,SBD,M
Boys,99.79,8,Jesse Diaz,Kennedale,99.79,176.9,113.4,185.97,476.27,Single-ply,SBD,M
Boys,99.79,9,Brandon Kiernan,Kennedale,92.12,165.56,136.08,170.1,471.74,Single-ply,SBD,M
Boys,99.79,DQ,Ariel Torres,Lake Worth,94.17,138.35,,,,Single-ply,SBD,M
Boys,109.77,1,Colton Hall,Kennedale,108.95,272.16,151.95,256.28,680.39,Single-ply,SBD,M
Boys,109.77,2,Cody Holaway,Paradise,109.77,263.08,136.08,235.87,635.03,Single-ply,SBD,M
Boys,109.77,3,Jared Richardson,Paradise,107.86,210.92,129.27,233.6,573.79,Single-ply,SBD,M
Boys,109.77,4,Chris Serwanga,Kennedale,107.59,242.67,120.2,195.04,557.92,Single-ply,SBD,M
Boys,109.77,5,Hunter Coleman,Bridgeport,107.68,201.85,127.01,208.65,537.51,Single-ply,SBD,M
Boys,109.77,6,Mikael Conn,Aubrey,103.24,208.65,117.93,183.7,510.29,Single-ply,SBD,M
Boys,109.77,7,Hayden Hudson,Kennedale,101.42,195.04,95.25,190.51,480.81,Single-ply,SBD,M
Boys,109.77,8,Connor Laughlin,Aubrey,101.6,170.1,102.06,174.63,446.79,Single-ply,SBD,M
Boys,109.77,9,Ian James,Aubrey,104.14,136.08,81.65,167.83,385.55,Single-ply,SBD,M
Boys,109.77,10,Wilson Odimba,Aubrey,109.23,136.08,70.31,136.08,342.46,Single-ply,SBD,M
Boys,124.74,1,Alexis Jimenez,Lake Worth,124.47,240.4,163.29,219.99,623.69,Single-ply,SBD,M
Boys,124.74,2,Bradley Aaron,Mineral Wells,117.21,238.14,151.95,231.33,621.42,Single-ply,SBD,M
Boys,124.74,3,Fred Reyna,Aubrey,119.66,251.74,122.47,235.87,610.08,Single-ply,SBD,M
Boys,124.74,4,Eric Stonechek,Bridgeport,124.74,224.53,158.76,226.8,610.08,Single-ply,SBD,M
Boys,124.74,5,Dylan Morgan,Aubrey,122.29,170.1,120.2,163.29,453.59,Single-ply,SBD,M
Boys,124.74,6,Jarom Larman,Aubrey,112.04,127.01,83.91,154.22,365.14,Single-ply,SBD,M
Boys,124.74+,1,Josh King #1,Lake Worth,132.9,272.16,165.56,263.08,700.8,Single-ply,SBD,M
Boys,124.74+,2,Caleb Jennings,Bridgeport,132.81,249.48,181.44,247.21,678.12,Single-ply,SBD,M
Boys,124.74+,3,Jordan Redfearn,Aubrey,129.82,242.67,113.4,240.4,596.47,Single-ply,SBD,M
Boys,124.74+,4,Tyler Yzaguirre,Bridgeport,129.73,204.12,167.83,183.7,555.65,Single-ply,SBD,M
Boys,124.74+,5,Quintana Reyes,Pilot Point,146.6,176.9,142.88,170.1,489.88,Single-ply,SBD,M
Boys,124.74+,6,James Mantell,Kennedale,141.34,108.86,68.04,120.2,297.1,Single-ply,SBD,M
